{
  "images" : [
    {
      "idiom" : "universal",
      "scale" : "1x",
      "filename" : "60x60.png"
    },
    {
      "idiom" : "universal",
      "scale" : "2x",
      "filename" : "120x120.png"
    }
  ],
  "info" : {
    "version" : 1,
    "author" : "xcode"
  }
}